%YAML 1.1
%TAG !u! tag:unity3d.com,2011:
--- !u!114 &11400000
MonoBehaviour:
  m_ObjectHideFlags: 0
  m_CorrespondingSourceObject: {fileID: 0}
  m_PrefabInstance: {fileID: 0}
  m_PrefabAsset: {fileID: 0}
  m_GameObject: {fileID: 0}
  m_Enabled: 1
  m_EditorHideFlags: 0
  m_Script: {fileID: 11500000, guid: 5f4588eceb5b29b458e9ab7b094be6dc, type: 3}
  m_Name: GameServicesData
  m_EditorClassIdentifier: 
  useForAndroid: 0
  useForIos: 0
  usePlaymaker: 0
  googleAppId: 
  allGameAchievements: []
  allGameLeaderboards: []
